%YAML 1.1
%TAG !u! tag:unity3d.com,2011:
--- !u!74 &7400000
AnimationClip:
  m_ObjectHideFlags: 0
  m_CorrespondingSourceObject: {fileID: 0}
  m_PrefabInstance: {fileID: 0}
  m_PrefabAsset: {fileID: 0}
  m_Name: BucketMan
  serializedVersion: 6
  m_Legacy: 0
  m_Compressed: 0
  m_UseHighQualityCurve: 1
  m_RotationCurves: []
  m_CompressedRotationCurves: []
  m_EulerCurves: []
  m_PositionCurves: []
  m_ScaleCurves: []
  m_FloatCurves: []
  m_PPtrCurves:
  - curve:
    - time: 0
      value: {fileID: 21300000, guid: d5c4032a575e0b343851b4217bdbdac2, type: 3}
    - time: 0.2
      value: {fileID: 21300000, guid: 8d99c558f03ef61458c658410597489f, type: 3}
    - time: 0.4
      value: {fileID: 21300000, guid: ebf9ebf5a0fbe8241a82aa1753ee44a9, type: 3}
    - time: 0.6
      value: {fileID: 21300000, guid: 1705e49ac6afc6b4e89892022116ddd1, type: 3}
    - time: 0.8
      value: {fileID: 21300000, guid: e85541a2b2a99ae45934ddfe4e97a5b0, type: 3}
    - time: 1
      value: {fileID: 21300000, guid: 7526b22db6bb98c498d36a2d859ad424, type: 3}
    - time: 1.2
      value: {fileID: 21300000, guid: 24a69118552f66b428704612f21bee03, type: 3}
    - time: 1.4
      value: {fileID: 21300000, guid: 41f06bbab30ff494eae649b1a8f519f0, type: 3}
    - time: 1.6
      value: {fileID: 21300000, guid: 3ebab2e547343524b9436d45901a8562, type: 3}
    - time: 1.8
      value: {fileID: 21300000, guid: 78870c189df362e4b8dfeb688248e5dd, type: 3}
    - time: 2
      value: {fileID: 21300000, guid: 7c97658c3ab62374090ad7605a02fbd8, type: 3}
    - time: 2.2
      value: {fileID: 21300000, guid: 919dcd5ed49edda4a8289cc6f74bffe3, type: 3}
    - time: 2.4
      value: {fileID: 21300000, guid: 788f7f758ab9b604ba4ffcdb08ce2d4c, type: 3}
    - time: 2.6
      value: {fileID: 21300000, guid: 54bdc475145be464396da8d4ca96bc52, type: 3}
    - time: 2.8
      value: {fileID: 21300000, guid: a33c9989725cc37429df41ee9eaa891b, type: 3}
    - time: 3
      value: {fileID: 21300000, guid: 5526c96e2e43c454d9636f6ac5887f15, type: 3}
    - time: 3.2
      value: {fileID: 21300000, guid: 117500d95997f884eab8fdf21a544bea, type: 3}
    - time: 3.4
      value: {fileID: 21300000, guid: 3c330d4b51bd33f44a35f06ed22502da, type: 3}
    - time: 3.6
      value: {fileID: 21300000, guid: 1356ee23aaaf116418a4124e705f2912, type: 3}
    - time: 3.8
      value: {fileID: 21300000, guid: 28aee7ac9ca05c040b9ffa47b8aaa443, type: 3}
    - time: 4
      value: {fileID: 21300000, guid: 54f0d04fcd046434cba650d04372205e, type: 3}
    - time: 4.2
      value: {fileID: 21300000, guid: 7f1340134a3e2c043b48a5a5166356b9, type: 3}
    - time: 4.4
      value: {fileID: 21300000, guid: f52150f63257f0445869fbe6e732fde5, type: 3}
    attribute: m_Sprite
    path: 
    classID: 212
    script: {fileID: 0}
  m_SampleRate: 5
  m_WrapMode: 0
  m_Bounds:
    m_Center: {x: 0, y: 0, z: 0}
    m_Extent: {x: 0, y: 0, z: 0}
  m_ClipBindingConstant:
    genericBindings:
    - serializedVersion: 2
      path: 0
      attribute: 0
      script: {fileID: 0}
      typeID: 212
      customType: 23
      isPPtrCurve: 1
    pptrCurveMapping:
    - {fileID: 21300000, guid: d5c4032a575e0b343851b4217bdbdac2, type: 3}
    - {fileID: 21300000, guid: 8d99c558f03ef61458c658410597489f, type: 3}
    - {fileID: 21300000, guid: ebf9ebf5a0fbe8241a82aa1753ee44a9, type: 3}
    - {fileID: 21300000, guid: 1705e49ac6afc6b4e89892022116ddd1, type: 3}
    - {fileID: 21300000, guid: e85541a2b2a99ae45934ddfe4e97a5b0, type: 3}
    - {fileID: 21300000, guid: 7526b22db6bb98c498d36a2d859ad424, type: 3}
    - {fileID: 21300000, guid: 24a69118552f66b428704612f21bee03, type: 3}
    - {fileID: 21300000, guid: 41f06bbab30ff494eae649b1a8f519f0, type: 3}
    - {fileID: 21300000, guid: 3ebab2e547343524b9436d45901a8562, type: 3}
    - {fileID: 21300000, guid: 78870c189df362e4b8dfeb688248e5dd, type: 3}
    - {fileID: 21300000, guid: 7c97658c3ab62374090ad7605a02fbd8, type: 3}
    - {fileID: 21300000, guid: 919dcd5ed49edda4a8289cc6f74bffe3, type: 3}
    - {fileID: 21300000, guid: 788f7f758ab9b604ba4ffcdb08ce2d4c, type: 3}
    - {fileID: 21300000, guid: 54bdc475145be464396da8d4ca96bc52, type: 3}
    - {fileID: 21300000, guid: a33c9989725cc37429df41ee9eaa891b, type: 3}
    - {fileID: 21300000, guid: 5526c96e2e43c454d9636f6ac5887f15, type: 3}
    - {fileID: 21300000, guid: 117500d95997f884eab8fdf21a544bea, type: 3}
    - {fileID: 21300000, guid: 3c330d4b51bd33f44a35f06ed22502da, type: 3}
    - {fileID: 21300000, guid: 1356ee23aaaf116418a4124e705f2912, type: 3}
    - {fileID: 21300000, guid: 28aee7ac9ca05c040b9ffa47b8aaa443, type: 3}
    - {fileID: 21300000, guid: 54f0d04fcd046434cba650d04372205e, type: 3}
    - {fileID: 21300000, guid: 7f1340134a3e2c043b48a5a5166356b9, type: 3}
    - {fileID: 21300000, guid: f52150f63257f0445869fbe6e732fde5, type: 3}
  m_AnimationClipSettings:
    serializedVersion: 2
    m_AdditiveReferencePoseClip: {fileID: 0}
    m_AdditiveReferencePoseTime: 0
    m_StartTime: 0
    m_StopTime: 4.6
    m_OrientationOffsetY: 0
    m_Level: 0
    m_CycleOffset: 0
    m_HasAdditiveReferencePose: 0
    m_LoopTime: 1
    m_LoopBlend: 0
    m_LoopBlendOrientation: 0
    m_LoopBlendPositionY: 0
    m_LoopBlendPositionXZ: 0
    m_KeepOriginalOrientation: 0
    m_KeepOriginalPositionY: 1
    m_KeepOriginalPositionXZ: 0
    m_HeightFromFeet: 0
    m_Mirror: 0
  m_EditorCurves: []
  m_EulerEditorCurves: []
  m_HasGenericRootTransform: 0
  m_HasMotionFloatCurves: 0
  m_Events: []
